{
  "app_id": "symfony-core:2.14.2",
  "app_version": "2.14.2",
  "id": "9108fb6e-7d6c-9a91-9b4e-bd8c6d75d021",
  "country_of_birth": null,
  "county_of_birth": "PI",
  "created_at": "2023-04-05T16:22:21+02:00",
  "date_of_birth": "1976-09-01T00:00:00+02:00",
  "domicile": {
    "address": "Via Roma, 1",
    "country": "Italia",
    "county": "PI",
    "municipality": "Milano",
    "post_code": "56056"
  },
  "email": "info@comune.bugliano.pi.it",
  "event_created_at": "2023-04-06T14:46:48+02:00",
  "event_id": "0862437b-731c-4d2c-9cc2-0d3ed8a3af45",
  "event_version": 1,
  "family_name": "Coliandro",
  "full_name": "Vittorino Coliandro",
  "gender": "M",
  "given_name": "Vittorino",
  "mobile_phone": "333 444 666 99",
  "path": "/users",
  "place_of_birth": "Ponsacco",
  "residency": {
    "address": "Via Gramsci, 1",
    "country": "Italia",
    "county": "PI",
    "municipality": "Napoli",
    "post_code": "56056"
  },
  "role": "user",
  "source_type": "http",
  "spid_code": null,
  "tax_code": "BTNVTR86P01G822R",
  "telephone": "003912378945",
  "tenant_id": "372e94f0-d441-4d84-9961-3a0b1bb2c2c2",
  "timestamp": "2023-04-06T12:46:48.130276936Z",
  "updated_at": "2023-04-06T14:46:48+02:00",
  "x-forwarded-for": null
}